^E:\MATERI KULIAH\OPENGL 3.0\OPENGL PROJECT\OPENGL PROJECT\OPENGL PROJECT\OPENGL PROJECT.CPP
D:\VS 2019 COMMUNITY\VC\TOOLS\MSVC\14.23.28105\BIN\HOSTX86\X86\1033\CLUI.DLL
C:\WINDOWS\GLOBALIZATION\SORTING\SORTDEFAULT.NLS
C:\WINDOWS\SYSTEM32\TZRES.DLL
C:\PROGRAM FILES (X86)\WINDOWS KITS\10\INCLUDE\10.0.18362.0\UCRT\STDIO.H
C:\PROGRAM FILES (X86)\WINDOWS KITS\10\INCLUDE\10.0.18362.0\UCRT\CORECRT.H
D:\VS 2019 COMMUNITY\VC\TOOLS\MSVC\14.23.28105\INCLUDE\VCRUNTIME.H
D:\VS 2019 COMMUNITY\VC\TOOLS\MSVC\14.23.28105\INCLUDE\SAL.H
D:\VS 2019 COMMUNITY\VC\TOOLS\MSVC\14.23.28105\INCLUDE\CONCURRENCYSAL.H
D:\VS 2019 COMMUNITY\VC\TOOLS\MSVC\14.23.28105\INCLUDE\VADEFS.H
C:\PROGRAM FILES (X86)\WINDOWS KITS\10\INCLUDE\10.0.18362.0\UCRT\CORECRT_WSTDIO.H
C:\PROGRAM FILES (X86)\WINDOWS KITS\10\INCLUDE\10.0.18362.0\UCRT\CORECRT_STDIO_CONFIG.H
C:\PROGRAM FILES (X86)\WINDOWS KITS\10\INCLUDE\10.0.18362.0\UCRT\STDLIB.H
C:\PROGRAM FILES (X86)\WINDOWS KITS\10\INCLUDE\10.0.18362.0\UCRT\CORECRT_MALLOC.H
C:\PROGRAM FILES (X86)\WINDOWS KITS\10\INCLUDE\10.0.18362.0\UCRT\CORECRT_SEARCH.H
C:\PROGRAM FILES (X86)\WINDOWS KITS\10\INCLUDE\10.0.18362.0\UCRT\STDDEF.H
C:\PROGRAM FILES (X86)\WINDOWS KITS\10\INCLUDE\10.0.18362.0\UCRT\CORECRT_WSTDLIB.H
D:\VS 2019 COMMUNITY\VC\TOOLS\MSVC\14.23.28105\INCLUDE\LIMITS.H
E:\MATERI KULIAH\OPENGL 3.0\OPENGL PROJECT\OPENGL PROJECT\OPENGL PROJECT\GL\GLEW.H
C:\PROGRAM FILES (X86)\WINDOWS KITS\10\INCLUDE\10.0.18362.0\UM\GL\GLU.H
C:\PROGRAM FILES (X86)\WINDOWS KITS\10\INCLUDE\10.0.18362.0\SHARED\WINAPIFAMILY.H
C:\PROGRAM FILES (X86)\WINDOWS KITS\10\INCLUDE\10.0.18362.0\SHARED\WINPACKAGEFAMILY.H
C:\PROGRAM FILES (X86)\WINDOWS KITS\10\INCLUDE\10.0.18362.0\UM\GL\GL.H
E:\MATERI KULIAH\OPENGL 3.0\OPENGL PROJECT\OPENGL PROJECT\OPENGL PROJECT\GLFW\GLFW3.H
D:\VS 2019 COMMUNITY\VC\TOOLS\MSVC\14.23.28105\INCLUDE\STDINT.H
E:\MATERI KULIAH\OPENGL 3.0\OPENGL PROJECT\OPENGL PROJECT\OPENGL PROJECT\SHADER.H
D:\VS 2019 COMMUNITY\VC\TOOLS\MSVC\14.23.28105\INCLUDE\STRING
D:\VS 2019 COMMUNITY\VC\TOOLS\MSVC\14.23.28105\INCLUDE\YVALS_CORE.H
D:\VS 2019 COMMUNITY\VC\TOOLS\MSVC\14.23.28105\INCLUDE\CRTDEFS.H
D:\VS 2019 COMMUNITY\VC\TOOLS\MSVC\14.23.28105\INCLUDE\XKEYCHECK.H
D:\VS 2019 COMMUNITY\VC\TOOLS\MSVC\14.23.28105\INCLUDE\XSTRING
D:\VS 2019 COMMUNITY\VC\TOOLS\MSVC\14.23.28105\INCLUDE\IOSFWD
D:\VS 2019 COMMUNITY\VC\TOOLS\MSVC\14.23.28105\INCLUDE\YVALS.H
C:\PROGRAM FILES (X86)\WINDOWS KITS\10\INCLUDE\10.0.18362.0\UCRT\CRTDBG.H
D:\VS 2019 COMMUNITY\VC\TOOLS\MSVC\14.23.28105\INCLUDE\VCRUNTIME_NEW_DEBUG.H
D:\VS 2019 COMMUNITY\VC\TOOLS\MSVC\14.23.28105\INCLUDE\VCRUNTIME_NEW.H
D:\VS 2019 COMMUNITY\VC\TOOLS\MSVC\14.23.28105\INCLUDE\USE_ANSI.H
D:\VS 2019 COMMUNITY\VC\TOOLS\MSVC\14.23.28105\INCLUDE\CSTDIO
D:\VS 2019 COMMUNITY\VC\TOOLS\MSVC\14.23.28105\INCLUDE\CSTRING
C:\PROGRAM FILES (X86)\WINDOWS KITS\10\INCLUDE\10.0.18362.0\UCRT\STRING.H
C:\PROGRAM FILES (X86)\WINDOWS KITS\10\INCLUDE\10.0.18362.0\UCRT\CORECRT_MEMORY.H
C:\PROGRAM FILES (X86)\WINDOWS KITS\10\INCLUDE\10.0.18362.0\UCRT\CORECRT_MEMCPY_S.H
C:\PROGRAM FILES (X86)\WINDOWS KITS\10\INCLUDE\10.0.18362.0\UCRT\ERRNO.H
D:\VS 2019 COMMUNITY\VC\TOOLS\MSVC\14.23.28105\INCLUDE\VCRUNTIME_STRING.H
C:\PROGRAM FILES (X86)\WINDOWS KITS\10\INCLUDE\10.0.18362.0\UCRT\CORECRT_WSTRING.H
D:\VS 2019 COMMUNITY\VC\TOOLS\MSVC\14.23.28105\INCLUDE\CWCHAR
C:\PROGRAM FILES (X86)\WINDOWS KITS\10\INCLUDE\10.0.18362.0\UCRT\WCHAR.H
C:\PROGRAM FILES (X86)\WINDOWS KITS\10\INCLUDE\10.0.18362.0\UCRT\CORECRT_WCONIO.H
C:\PROGRAM FILES (X86)\WINDOWS KITS\10\INCLUDE\10.0.18362.0\UCRT\CORECRT_WCTYPE.H
C:\PROGRAM FILES (X86)\WINDOWS KITS\10\INCLUDE\10.0.18362.0\UCRT\CORECRT_WDIRECT.H
C:\PROGRAM FILES (X86)\WINDOWS KITS\10\INCLUDE\10.0.18362.0\UCRT\CORECRT_WIO.H
C:\PROGRAM FILES (X86)\WINDOWS KITS\10\INCLUDE\10.0.18362.0\UCRT\CORECRT_SHARE.H
C:\PROGRAM FILES (X86)\WINDOWS KITS\10\INCLUDE\10.0.18362.0\UCRT\CORECRT_WPROCESS.H
C:\PROGRAM FILES (X86)\WINDOWS KITS\10\INCLUDE\10.0.18362.0\UCRT\CORECRT_WTIME.H
C:\PROGRAM FILES (X86)\WINDOWS KITS\10\INCLUDE\10.0.18362.0\UCRT\SYS\STAT.H
C:\PROGRAM FILES (X86)\WINDOWS KITS\10\INCLUDE\10.0.18362.0\UCRT\SYS\TYPES.H
D:\VS 2019 COMMUNITY\VC\TOOLS\MSVC\14.23.28105\INCLUDE\XSTDDEF
D:\VS 2019 COMMUNITY\VC\TOOLS\MSVC\14.23.28105\INCLUDE\CSTDDEF
D:\VS 2019 COMMUNITY\VC\TOOLS\MSVC\14.23.28105\INCLUDE\XTR1COMMON
D:\VS 2019 COMMUNITY\VC\TOOLS\MSVC\14.23.28105\INCLUDE\CSTDLIB
C:\PROGRAM FILES (X86)\WINDOWS KITS\10\INCLUDE\10.0.18362.0\UCRT\MATH.H
C:\PROGRAM FILES (X86)\WINDOWS KITS\10\INCLUDE\10.0.18362.0\UCRT\CORECRT_MATH.H
D:\VS 2019 COMMUNITY\VC\TOOLS\MSVC\14.23.28105\INCLUDE\INITIALIZER_LIST
D:\VS 2019 COMMUNITY\VC\TOOLS\MSVC\14.23.28105\INCLUDE\XMEMORY
D:\VS 2019 COMMUNITY\VC\TOOLS\MSVC\14.23.28105\INCLUDE\CSTDINT
D:\VS 2019 COMMUNITY\VC\TOOLS\MSVC\14.23.28105\INCLUDE\LIMITS
D:\VS 2019 COMMUNITY\VC\TOOLS\MSVC\14.23.28105\INCLUDE\CFLOAT
C:\PROGRAM FILES (X86)\WINDOWS KITS\10\INCLUDE\10.0.18362.0\UCRT\FLOAT.H
D:\VS 2019 COMMUNITY\VC\TOOLS\MSVC\14.23.28105\INCLUDE\CLIMITS
D:\VS 2019 COMMUNITY\VC\TOOLS\MSVC\14.23.28105\INCLUDE\NEW
D:\VS 2019 COMMUNITY\VC\TOOLS\MSVC\14.23.28105\INCLUDE\EXCEPTION
D:\VS 2019 COMMUNITY\VC\TOOLS\MSVC\14.23.28105\INCLUDE\TYPE_TRAITS
C:\PROGRAM FILES (X86)\WINDOWS KITS\10\INCLUDE\10.0.18362.0\UCRT\MALLOC.H
D:\VS 2019 COMMUNITY\VC\TOOLS\MSVC\14.23.28105\INCLUDE\VCRUNTIME_EXCEPTION.H
D:\VS 2019 COMMUNITY\VC\TOOLS\MSVC\14.23.28105\INCLUDE\EH.H
C:\PROGRAM FILES (X86)\WINDOWS KITS\10\INCLUDE\10.0.18362.0\UCRT\CORECRT_TERMINATE.H
D:\VS 2019 COMMUNITY\VC\TOOLS\MSVC\14.23.28105\INCLUDE\XATOMIC.H
D:\VS 2019 COMMUNITY\VC\TOOLS\MSVC\14.23.28105\INCLUDE\INTRIN0.H
D:\VS 2019 COMMUNITY\VC\TOOLS\MSVC\14.23.28105\INCLUDE\XUTILITY
D:\VS 2019 COMMUNITY\VC\TOOLS\MSVC\14.23.28105\INCLUDE\UTILITY
D:\VS 2019 COMMUNITY\VC\TOOLS\MSVC\14.23.28105\INCLUDE\CCTYPE
C:\PROGRAM FILES (X86)\WINDOWS KITS\10\INCLUDE\10.0.18362.0\UCRT\CTYPE.H
D:\VS 2019 COMMUNITY\VC\TOOLS\MSVC\14.23.28105\INCLUDE\FSTREAM
D:\VS 2019 COMMUNITY\VC\TOOLS\MSVC\14.23.28105\INCLUDE\ISTREAM
D:\VS 2019 COMMUNITY\VC\TOOLS\MSVC\14.23.28105\INCLUDE\OSTREAM
D:\VS 2019 COMMUNITY\VC\TOOLS\MSVC\14.23.28105\INCLUDE\IOS
D:\VS 2019 COMMUNITY\VC\TOOLS\MSVC\14.23.28105\INCLUDE\XLOCNUM
D:\VS 2019 COMMUNITY\VC\TOOLS\MSVC\14.23.28105\INCLUDE\CMATH
D:\VS 2019 COMMUNITY\VC\TOOLS\MSVC\14.23.28105\INCLUDE\XTGMATH.H
D:\VS 2019 COMMUNITY\VC\TOOLS\MSVC\14.23.28105\INCLUDE\STREAMBUF
D:\VS 2019 COMMUNITY\VC\TOOLS\MSVC\14.23.28105\INCLUDE\XIOSBASE
C:\PROGRAM FILES (X86)\WINDOWS KITS\10\INCLUDE\10.0.18362.0\UCRT\SHARE.H
D:\VS 2019 COMMUNITY\VC\TOOLS\MSVC\14.23.28105\INCLUDE\SYSTEM_ERROR
D:\VS 2019 COMMUNITY\VC\TOOLS\MSVC\14.23.28105\INCLUDE\CERRNO
D:\VS 2019 COMMUNITY\VC\TOOLS\MSVC\14.23.28105\INCLUDE\STDEXCEPT
D:\VS 2019 COMMUNITY\VC\TOOLS\MSVC\14.23.28105\INCLUDE\XCALL_ONCE.H
D:\VS 2019 COMMUNITY\VC\TOOLS\MSVC\14.23.28105\INCLUDE\XERRC.H
D:\VS 2019 COMMUNITY\VC\TOOLS\MSVC\14.23.28105\INCLUDE\XLOCALE
D:\VS 2019 COMMUNITY\VC\TOOLS\MSVC\14.23.28105\INCLUDE\MEMORY
D:\VS 2019 COMMUNITY\VC\TOOLS\MSVC\14.23.28105\INCLUDE\TYPEINFO
D:\VS 2019 COMMUNITY\VC\TOOLS\MSVC\14.23.28105\INCLUDE\VCRUNTIME_TYPEINFO.H
D:\VS 2019 COMMUNITY\VC\TOOLS\MSVC\14.23.28105\INCLUDE\XFACET
D:\VS 2019 COMMUNITY\VC\TOOLS\MSVC\14.23.28105\INCLUDE\XLOCINFO
D:\VS 2019 COMMUNITY\VC\TOOLS\MSVC\14.23.28105\INCLUDE\XLOCINFO.H
C:\PROGRAM FILES (X86)\WINDOWS KITS\10\INCLUDE\10.0.18362.0\UCRT\LOCALE.H
D:\VS 2019 COMMUNITY\VC\TOOLS\MSVC\14.23.28105\INCLUDE\SSTREAM
D:\VS 2019 COMMUNITY\VC\TOOLS\MSVC\14.23.28105\INCLUDE\VECTOR
E:\MATERI KULIAH\OPENGL 3.0\OPENGL PROJECT\OPENGL PROJECT\OPENGL PROJECT\SHAPE.H
D:\VS 2019 COMMUNITY\VC\TOOLS\MSVC\14.23.28105\INCLUDE\IOSTREAM
E:\MATERI KULIAH\OPENGL 3.0\OPENGL PROJECT\OPENGL PROJECT\OPENGL PROJECT\GLM\EXT.HPP
E:\MATERI KULIAH\OPENGL 3.0\OPENGL PROJECT\OPENGL PROJECT\OPENGL PROJECT\GLM\DETAIL\SETUP.HPP
D:\VS 2019 COMMUNITY\VC\TOOLS\MSVC\14.23.28105\INCLUDE\CASSERT
C:\PROGRAM FILES (X86)\WINDOWS KITS\10\INCLUDE\10.0.18362.0\UCRT\ASSERT.H
E:\MATERI KULIAH\OPENGL 3.0\OPENGL PROJECT\OPENGL PROJECT\OPENGL PROJECT\GLM\SIMD\PLATFORM.H
E:\MATERI KULIAH\OPENGL 3.0\OPENGL PROJECT\OPENGL PROJECT\OPENGL PROJECT\GLM\GLM.HPP
E:\MATERI KULIAH\OPENGL 3.0\OPENGL PROJECT\OPENGL PROJECT\OPENGL PROJECT\GLM\DETAIL\_FIXES.HPP
E:\MATERI KULIAH\OPENGL 3.0\OPENGL PROJECT\OPENGL PROJECT\OPENGL PROJECT\GLM\FWD.HPP
E:\MATERI KULIAH\OPENGL 3.0\OPENGL PROJECT\OPENGL PROJECT\OPENGL PROJECT\GLM\DETAIL\QUALIFIER.HPP
E:\MATERI KULIAH\OPENGL 3.0\OPENGL PROJECT\OPENGL PROJECT\OPENGL PROJECT\GLM\VEC2.HPP
E:\MATERI KULIAH\OPENGL 3.0\OPENGL PROJECT\OPENGL PROJECT\OPENGL PROJECT\GLM\EXT\VECTOR_BOOL2.HPP
E:\MATERI KULIAH\OPENGL 3.0\OPENGL PROJECT\OPENGL PROJECT\OPENGL PROJECT\GLM\DETAIL\TYPE_VEC2.HPP
E:\MATERI KULIAH\OPENGL 3.0\OPENGL PROJECT\OPENGL PROJECT\OPENGL PROJECT\GLM\DETAIL\TYPE_VEC2.INL
E:\MATERI KULIAH\OPENGL 3.0\OPENGL PROJECT\OPENGL PROJECT\OPENGL PROJECT\GLM\DETAIL\COMPUTE_VECTOR_RELATIONAL.HPP
E:\MATERI KULIAH\OPENGL 3.0\OPENGL PROJECT\OPENGL PROJECT\OPENGL PROJECT\GLM\EXT\VECTOR_BOOL2_PRECISION.HPP
E:\MATERI KULIAH\OPENGL 3.0\OPENGL PROJECT\OPENGL PROJECT\OPENGL PROJECT\GLM\EXT\VECTOR_FLOAT2.HPP
E:\MATERI KULIAH\OPENGL 3.0\OPENGL PROJECT\OPENGL PROJECT\OPENGL PROJECT\GLM\EXT\VECTOR_FLOAT2_PRECISION.HPP
E:\MATERI KULIAH\OPENGL 3.0\OPENGL PROJECT\OPENGL PROJECT\OPENGL PROJECT\GLM\EXT\VECTOR_DOUBLE2.HPP
E:\MATERI KULIAH\OPENGL 3.0\OPENGL PROJECT\OPENGL PROJECT\OPENGL PROJECT\GLM\EXT\VECTOR_DOUBLE2_PRECISION.HPP
E:\MATERI KULIAH\OPENGL 3.0\OPENGL PROJECT\OPENGL PROJECT\OPENGL PROJECT\GLM\EXT\VECTOR_INT2.HPP
E:\MATERI KULIAH\OPENGL 3.0\OPENGL PROJECT\OPENGL PROJECT\OPENGL PROJECT\GLM\EXT\VECTOR_INT2_PRECISION.HPP
E:\MATERI KULIAH\OPENGL 3.0\OPENGL PROJECT\OPENGL PROJECT\OPENGL PROJECT\GLM\EXT\VECTOR_UINT2.HPP
E:\MATERI KULIAH\OPENGL 3.0\OPENGL PROJECT\OPENGL PROJECT\OPENGL PROJECT\GLM\EXT\VECTOR_UINT2_PRECISION.HPP
E:\MATERI KULIAH\OPENGL 3.0\OPENGL PROJECT\OPENGL PROJECT\OPENGL PROJECT\GLM\VEC3.HPP
E:\MATERI KULIAH\OPENGL 3.0\OPENGL PROJECT\OPENGL PROJECT\OPENGL PROJECT\GLM\EXT\VECTOR_BOOL3.HPP
E:\MATERI KULIAH\OPENGL 3.0\OPENGL PROJECT\OPENGL PROJECT\OPENGL PROJECT\GLM\DETAIL\TYPE_VEC3.HPP
E:\MATERI KULIAH\OPENGL 3.0\OPENGL PROJECT\OPENGL PROJECT\OPENGL PROJECT\GLM\DETAIL\TYPE_VEC3.INL
E:\MATERI KULIAH\OPENGL 3.0\OPENGL PROJECT\OPENGL PROJECT\OPENGL PROJECT\GLM\EXT\VECTOR_BOOL3_PRECISION.HPP
E:\MATERI KULIAH\OPENGL 3.0\OPENGL PROJECT\OPENGL PROJECT\OPENGL PROJECT\GLM\EXT\VECTOR_FLOAT3.HPP
E:\MATERI KULIAH\OPENGL 3.0\OPENGL PROJECT\OPENGL PROJECT\OPENGL PROJECT\GLM\EXT\VECTOR_FLOAT3_PRECISION.HPP
E:\MATERI KULIAH\OPENGL 3.0\OPENGL PROJECT\OPENGL PROJECT\OPENGL PROJECT\GLM\EXT\VECTOR_DOUBLE3.HPP
E:\MATERI KULIAH\OPENGL 3.0\OPENGL PROJECT\OPENGL PROJECT\OPENGL PROJECT\GLM\EXT\VECTOR_DOUBLE3_PRECISION.HPP
E:\MATERI KULIAH\OPENGL 3.0\OPENGL PROJECT\OPENGL PROJECT\OPENGL PROJECT\GLM\EXT\VECTOR_INT3.HPP
E:\MATERI KULIAH\OPENGL 3.0\OPENGL PROJECT\OPENGL PROJECT\OPENGL PROJECT\GLM\EXT\VECTOR_INT3_PRECISION.HPP
E:\MATERI KULIAH\OPENGL 3.0\OPENGL PROJECT\OPENGL PROJECT\OPENGL PROJECT\GLM\EXT\VECTOR_UINT3.HPP
E:\MATERI KULIAH\OPENGL 3.0\OPENGL PROJECT\OPENGL PROJECT\OPENGL PROJECT\GLM\EXT\VECTOR_UINT3_PRECISION.HPP
E:\MATERI KULIAH\OPENGL 3.0\OPENGL PROJECT\OPENGL PROJECT\OPENGL PROJECT\GLM\VEC4.HPP
E:\MATERI KULIAH\OPENGL 3.0\OPENGL PROJECT\OPENGL PROJECT\OPENGL PROJECT\GLM\EXT\VECTOR_BOOL4.HPP
E:\MATERI KULIAH\OPENGL 3.0\OPENGL PROJECT\OPENGL PROJECT\OPENGL PROJECT\GLM\DETAIL\TYPE_VEC4.HPP
E:\MATERI KULIAH\OPENGL 3.0\OPENGL PROJECT\OPENGL PROJECT\OPENGL PROJECT\GLM\DETAIL\TYPE_VEC4.INL
E:\MATERI KULIAH\OPENGL 3.0\OPENGL PROJECT\OPENGL PROJECT\OPENGL PROJECT\GLM\EXT\VECTOR_BOOL4_PRECISION.HPP
E:\MATERI KULIAH\OPENGL 3.0\OPENGL PROJECT\OPENGL PROJECT\OPENGL PROJECT\GLM\EXT\VECTOR_FLOAT4.HPP
E:\MATERI KULIAH\OPENGL 3.0\OPENGL PROJECT\OPENGL PROJECT\OPENGL PROJECT\GLM\EXT\VECTOR_FLOAT4_PRECISION.HPP
E:\MATERI KULIAH\OPENGL 3.0\OPENGL PROJECT\OPENGL PROJECT\OPENGL PROJECT\GLM\EXT\VECTOR_DOUBLE4.HPP
E:\MATERI KULIAH\OPENGL 3.0\OPENGL PROJECT\OPENGL PROJECT\OPENGL PROJECT\GLM\EXT\VECTOR_DOUBLE4_PRECISION.HPP
E:\MATERI KULIAH\OPENGL 3.0\OPENGL PROJECT\OPENGL PROJECT\OPENGL PROJECT\GLM\EXT\VECTOR_INT4.HPP
E:\MATERI KULIAH\OPENGL 3.0\OPENGL PROJECT\OPENGL PROJECT\OPENGL PROJECT\GLM\EXT\VECTOR_INT4_PRECISION.HPP
E:\MATERI KULIAH\OPENGL 3.0\OPENGL PROJECT\OPENGL PROJECT\OPENGL PROJECT\GLM\EXT\VECTOR_UINT4.HPP
E:\MATERI KULIAH\OPENGL 3.0\OPENGL PROJECT\OPENGL PROJECT\OPENGL PROJECT\GLM\EXT\VECTOR_UINT4_PRECISION.HPP
E:\MATERI KULIAH\OPENGL 3.0\OPENGL PROJECT\OPENGL PROJECT\OPENGL PROJECT\GLM\MAT2X2.HPP
E:\MATERI KULIAH\OPENGL 3.0\OPENGL PROJECT\OPENGL PROJECT\OPENGL PROJECT\GLM\EXT\MATRIX_DOUBLE2X2.HPP
E:\MATERI KULIAH\OPENGL 3.0\OPENGL PROJECT\OPENGL PROJECT\OPENGL PROJECT\GLM\DETAIL\TYPE_MAT2X2.HPP
E:\MATERI KULIAH\OPENGL 3.0\OPENGL PROJECT\OPENGL PROJECT\OPENGL PROJECT\GLM\DETAIL\TYPE_MAT2X2.INL
E:\MATERI KULIAH\OPENGL 3.0\OPENGL PROJECT\OPENGL PROJECT\OPENGL PROJECT\GLM\MATRIX.HPP
E:\MATERI KULIAH\OPENGL 3.0\OPENGL PROJECT\OPENGL PROJECT\OPENGL PROJECT\GLM\MAT2X3.HPP
E:\MATERI KULIAH\OPENGL 3.0\OPENGL PROJECT\OPENGL PROJECT\OPENGL PROJECT\GLM\EXT\MATRIX_DOUBLE2X3.HPP
E:\MATERI KULIAH\OPENGL 3.0\OPENGL PROJECT\OPENGL PROJECT\OPENGL PROJECT\GLM\DETAIL\TYPE_MAT2X3.HPP
E:\MATERI KULIAH\OPENGL 3.0\OPENGL PROJECT\OPENGL PROJECT\OPENGL PROJECT\GLM\DETAIL\TYPE_MAT2X3.INL
E:\MATERI KULIAH\OPENGL 3.0\OPENGL PROJECT\OPENGL PROJECT\OPENGL PROJECT\GLM\EXT\MATRIX_DOUBLE2X3_PRECISION.HPP
E:\MATERI KULIAH\OPENGL 3.0\OPENGL PROJECT\OPENGL PROJECT\OPENGL PROJECT\GLM\EXT\MATRIX_FLOAT2X3.HPP
E:\MATERI KULIAH\OPENGL 3.0\OPENGL PROJECT\OPENGL PROJECT\OPENGL PROJECT\GLM\EXT\MATRIX_FLOAT2X3_PRECISION.HPP
E:\MATERI KULIAH\OPENGL 3.0\OPENGL PROJECT\OPENGL PROJECT\OPENGL PROJECT\GLM\MAT2X4.HPP
E:\MATERI KULIAH\OPENGL 3.0\OPENGL PROJECT\OPENGL PROJECT\OPENGL PROJECT\GLM\EXT\MATRIX_DOUBLE2X4.HPP
E:\MATERI KULIAH\OPENGL 3.0\OPENGL PROJECT\OPENGL PROJECT\OPENGL PROJECT\GLM\DETAIL\TYPE_MAT2X4.HPP
E:\MATERI KULIAH\OPENGL 3.0\OPENGL PROJECT\OPENGL PROJECT\OPENGL PROJECT\GLM\DETAIL\TYPE_MAT2X4.INL
E:\MATERI KULIAH\OPENGL 3.0\OPENGL PROJECT\OPENGL PROJECT\OPENGL PROJECT\GLM\EXT\MATRIX_DOUBLE2X4_PRECISION.HPP
E:\MATERI KULIAH\OPENGL 3.0\OPENGL PROJECT\OPENGL PROJECT\OPENGL PROJECT\GLM\EXT\MATRIX_FLOAT2X4.HPP
E:\MATERI KULIAH\OPENGL 3.0\OPENGL PROJECT\OPENGL PROJECT\OPENGL PROJECT\GLM\EXT\MATRIX_FLOAT2X4_PRECISION.HPP
E:\MATERI KULIAH\OPENGL 3.0\OPENGL PROJECT\OPENGL PROJECT\OPENGL PROJECT\GLM\MAT3X2.HPP
E:\MATERI KULIAH\OPENGL 3.0\OPENGL PROJECT\OPENGL PROJECT\OPENGL PROJECT\GLM\EXT\MATRIX_DOUBLE3X2.HPP
E:\MATERI KULIAH\OPENGL 3.0\OPENGL PROJECT\OPENGL PROJECT\OPENGL PROJECT\GLM\DETAIL\TYPE_MAT3X2.HPP
E:\MATERI KULIAH\OPENGL 3.0\OPENGL PROJECT\OPENGL PROJECT\OPENGL PROJECT\GLM\DETAIL\TYPE_MAT3X2.INL
E:\MATERI KULIAH\OPENGL 3.0\OPENGL PROJECT\OPENGL PROJECT\OPENGL PROJECT\GLM\EXT\MATRIX_DOUBLE3X2_PRECISION.HPP
E:\MATERI KULIAH\OPENGL 3.0\OPENGL PROJECT\OPENGL PROJECT\OPENGL PROJECT\GLM\EXT\MATRIX_FLOAT3X2.HPP
E:\MATERI KULIAH\OPENGL 3.0\OPENGL PROJECT\OPENGL PROJECT\OPENGL PROJECT\GLM\EXT\MATRIX_FLOAT3X2_PRECISION.HPP
E:\MATERI KULIAH\OPENGL 3.0\OPENGL PROJECT\OPENGL PROJECT\OPENGL PROJECT\GLM\MAT3X3.HPP
E:\MATERI KULIAH\OPENGL 3.0\OPENGL PROJECT\OPENGL PROJECT\OPENGL PROJECT\GLM\EXT\MATRIX_DOUBLE3X3.HPP
E:\MATERI KULIAH\OPENGL 3.0\OPENGL PROJECT\OPENGL PROJECT\OPENGL PROJECT\GLM\DETAIL\TYPE_MAT3X3.HPP
E:\MATERI KULIAH\OPENGL 3.0\OPENGL PROJECT\OPENGL PROJECT\OPENGL PROJECT\GLM\DETAIL\TYPE_MAT3X3.INL
E:\MATERI KULIAH\OPENGL 3.0\OPENGL PROJECT\OPENGL PROJECT\OPENGL PROJECT\GLM\EXT\MATRIX_DOUBLE3X3_PRECISION.HPP
E:\MATERI KULIAH\OPENGL 3.0\OPENGL PROJECT\OPENGL PROJECT\OPENGL PROJECT\GLM\EXT\MATRIX_FLOAT3X3.HPP
E:\MATERI KULIAH\OPENGL 3.0\OPENGL PROJECT\OPENGL PROJECT\OPENGL PROJECT\GLM\EXT\MATRIX_FLOAT3X3_PRECISION.HPP
E:\MATERI KULIAH\OPENGL 3.0\OPENGL PROJECT\OPENGL PROJECT\OPENGL PROJECT\GLM\MAT3X4.HPP
E:\MATERI KULIAH\OPENGL 3.0\OPENGL PROJECT\OPENGL PROJECT\OPENGL PROJECT\GLM\EXT\MATRIX_DOUBLE3X4.HPP
E:\MATERI KULIAH\OPENGL 3.0\OPENGL PROJECT\OPENGL PROJECT\OPENGL PROJECT\GLM\DETAIL\TYPE_MAT3X4.HPP
E:\MATERI KULIAH\OPENGL 3.0\OPENGL PROJECT\OPENGL PROJECT\OPENGL PROJECT\GLM\DETAIL\TYPE_MAT3X4.INL
E:\MATERI KULIAH\OPENGL 3.0\OPENGL PROJECT\OPENGL PROJECT\OPENGL PROJECT\GLM\EXT\MATRIX_DOUBLE3X4_PRECISION.HPP
E:\MATERI KULIAH\OPENGL 3.0\OPENGL PROJECT\OPENGL PROJECT\OPENGL PROJECT\GLM\EXT\MATRIX_FLOAT3X4.HPP
E:\MATERI KULIAH\OPENGL 3.0\OPENGL PROJECT\OPENGL PROJECT\OPENGL PROJECT\GLM\EXT\MATRIX_FLOAT3X4_PRECISION.HPP
E:\MATERI KULIAH\OPENGL 3.0\OPENGL PROJECT\OPENGL PROJECT\OPENGL PROJECT\GLM\MAT4X2.HPP
E:\MATERI KULIAH\OPENGL 3.0\OPENGL PROJECT\OPENGL PROJECT\OPENGL PROJECT\GLM\EXT\MATRIX_DOUBLE4X2.HPP
E:\MATERI KULIAH\OPENGL 3.0\OPENGL PROJECT\OPENGL PROJECT\OPENGL PROJECT\GLM\DETAIL\TYPE_MAT4X2.HPP
E:\MATERI KULIAH\OPENGL 3.0\OPENGL PROJECT\OPENGL PROJECT\OPENGL PROJECT\GLM\DETAIL\TYPE_MAT4X2.INL
E:\MATERI KULIAH\OPENGL 3.0\OPENGL PROJECT\OPENGL PROJECT\OPENGL PROJECT\GLM\EXT\MATRIX_DOUBLE4X2_PRECISION.HPP
E:\MATERI KULIAH\OPENGL 3.0\OPENGL PROJECT\OPENGL PROJECT\OPENGL PROJECT\GLM\EXT\MATRIX_FLOAT4X2.HPP
E:\MATERI KULIAH\OPENGL 3.0\OPENGL PROJECT\OPENGL PROJECT\OPENGL PROJECT\GLM\EXT\MATRIX_FLOAT4X2_PRECISION.HPP
E:\MATERI KULIAH\OPENGL 3.0\OPENGL PROJECT\OPENGL PROJECT\OPENGL PROJECT\GLM\MAT4X3.HPP
E:\MATERI KULIAH\OPENGL 3.0\OPENGL PROJECT\OPENGL PROJECT\OPENGL PROJECT\GLM\EXT\MATRIX_DOUBLE4X3.HPP
E:\MATERI KULIAH\OPENGL 3.0\OPENGL PROJECT\OPENGL PROJECT\OPENGL PROJECT\GLM\DETAIL\TYPE_MAT4X3.HPP
E:\MATERI KULIAH\OPENGL 3.0\OPENGL PROJECT\OPENGL PROJECT\OPENGL PROJECT\GLM\DETAIL\TYPE_MAT4X3.INL
E:\MATERI KULIAH\OPENGL 3.0\OPENGL PROJECT\OPENGL PROJECT\OPENGL PROJECT\GLM\EXT\MATRIX_DOUBLE4X3_PRECISION.HPP
E:\MATERI KULIAH\OPENGL 3.0\OPENGL PROJECT\OPENGL PROJECT\OPENGL PROJECT\GLM\EXT\MATRIX_FLOAT4X3.HPP
E:\MATERI KULIAH\OPENGL 3.0\OPENGL PROJECT\OPENGL PROJECT\OPENGL PROJECT\GLM\EXT\MATRIX_FLOAT4X3_PRECISION.HPP
E:\MATERI KULIAH\OPENGL 3.0\OPENGL PROJECT\OPENGL PROJECT\OPENGL PROJECT\GLM\MAT4X4.HPP
E:\MATERI KULIAH\OPENGL 3.0\OPENGL PROJECT\OPENGL PROJECT\OPENGL PROJECT\GLM\EXT\MATRIX_DOUBLE4X4.HPP
E:\MATERI KULIAH\OPENGL 3.0\OPENGL PROJECT\OPENGL PROJECT\OPENGL PROJECT\GLM\DETAIL\TYPE_MAT4X4.HPP
E:\MATERI KULIAH\OPENGL 3.0\OPENGL PROJECT\OPENGL PROJECT\OPENGL PROJECT\GLM\DETAIL\TYPE_MAT4X4.INL
E:\MATERI KULIAH\OPENGL 3.0\OPENGL PROJECT\OPENGL PROJECT\OPENGL PROJECT\GLM\EXT\MATRIX_DOUBLE4X4_PRECISION.HPP
E:\MATERI KULIAH\OPENGL 3.0\OPENGL PROJECT\OPENGL PROJECT\OPENGL PROJECT\GLM\EXT\MATRIX_FLOAT4X4.HPP
E:\MATERI KULIAH\OPENGL 3.0\OPENGL PROJECT\OPENGL PROJECT\OPENGL PROJECT\GLM\EXT\MATRIX_FLOAT4X4_PRECISION.HPP
E:\MATERI KULIAH\OPENGL 3.0\OPENGL PROJECT\OPENGL PROJECT\OPENGL PROJECT\GLM\DETAIL\FUNC_MATRIX.INL
E:\MATERI KULIAH\OPENGL 3.0\OPENGL PROJECT\OPENGL PROJECT\OPENGL PROJECT\GLM\GEOMETRIC.HPP
E:\MATERI KULIAH\OPENGL 3.0\OPENGL PROJECT\OPENGL PROJECT\OPENGL PROJECT\GLM\DETAIL\FUNC_GEOMETRIC.INL
E:\MATERI KULIAH\OPENGL 3.0\OPENGL PROJECT\OPENGL PROJECT\OPENGL PROJECT\GLM\EXPONENTIAL.HPP
E:\MATERI KULIAH\OPENGL 3.0\OPENGL PROJECT\OPENGL PROJECT\OPENGL PROJECT\GLM\DETAIL\TYPE_VEC1.HPP
E:\MATERI KULIAH\OPENGL 3.0\OPENGL PROJECT\OPENGL PROJECT\OPENGL PROJECT\GLM\DETAIL\TYPE_VEC1.INL
E:\MATERI KULIAH\OPENGL 3.0\OPENGL PROJECT\OPENGL PROJECT\OPENGL PROJECT\GLM\DETAIL\FUNC_EXPONENTIAL.INL
E:\MATERI KULIAH\OPENGL 3.0\OPENGL PROJECT\OPENGL PROJECT\OPENGL PROJECT\GLM\VECTOR_RELATIONAL.HPP
E:\MATERI KULIAH\OPENGL 3.0\OPENGL PROJECT\OPENGL PROJECT\OPENGL PROJECT\GLM\DETAIL\FUNC_VECTOR_RELATIONAL.INL
E:\MATERI KULIAH\OPENGL 3.0\OPENGL PROJECT\OPENGL PROJECT\OPENGL PROJECT\GLM\DETAIL\_VECTORIZE.HPP
E:\MATERI KULIAH\OPENGL 3.0\OPENGL PROJECT\OPENGL PROJECT\OPENGL PROJECT\GLM\COMMON.HPP
E:\MATERI KULIAH\OPENGL 3.0\OPENGL PROJECT\OPENGL PROJECT\OPENGL PROJECT\GLM\DETAIL\FUNC_COMMON.INL
E:\MATERI KULIAH\OPENGL 3.0\OPENGL PROJECT\OPENGL PROJECT\OPENGL PROJECT\GLM\DETAIL\COMPUTE_COMMON.HPP
E:\MATERI KULIAH\OPENGL 3.0\OPENGL PROJECT\OPENGL PROJECT\OPENGL PROJECT\GLM\EXT\MATRIX_DOUBLE2X2_PRECISION.HPP
E:\MATERI KULIAH\OPENGL 3.0\OPENGL PROJECT\OPENGL PROJECT\OPENGL PROJECT\GLM\EXT\MATRIX_FLOAT2X2.HPP
E:\MATERI KULIAH\OPENGL 3.0\OPENGL PROJECT\OPENGL PROJECT\OPENGL PROJECT\GLM\EXT\MATRIX_FLOAT2X2_PRECISION.HPP
E:\MATERI KULIAH\OPENGL 3.0\OPENGL PROJECT\OPENGL PROJECT\OPENGL PROJECT\GLM\TRIGONOMETRIC.HPP
E:\MATERI KULIAH\OPENGL 3.0\OPENGL PROJECT\OPENGL PROJECT\OPENGL PROJECT\GLM\DETAIL\FUNC_TRIGONOMETRIC.INL
E:\MATERI KULIAH\OPENGL 3.0\OPENGL PROJECT\OPENGL PROJECT\OPENGL PROJECT\GLM\PACKING.HPP
E:\MATERI KULIAH\OPENGL 3.0\OPENGL PROJECT\OPENGL PROJECT\OPENGL PROJECT\GLM\DETAIL\FUNC_PACKING.INL
E:\MATERI KULIAH\OPENGL 3.0\OPENGL PROJECT\OPENGL PROJECT\OPENGL PROJECT\GLM\DETAIL\TYPE_HALF.HPP
E:\MATERI KULIAH\OPENGL 3.0\OPENGL PROJECT\OPENGL PROJECT\OPENGL PROJECT\GLM\DETAIL\TYPE_HALF.INL
E:\MATERI KULIAH\OPENGL 3.0\OPENGL PROJECT\OPENGL PROJECT\OPENGL PROJECT\GLM\INTEGER.HPP
E:\MATERI KULIAH\OPENGL 3.0\OPENGL PROJECT\OPENGL PROJECT\OPENGL PROJECT\GLM\DETAIL\FUNC_INTEGER.INL
D:\VS 2019 COMMUNITY\VC\TOOLS\MSVC\14.23.28105\INCLUDE\INTRIN.H
D:\VS 2019 COMMUNITY\VC\TOOLS\MSVC\14.23.28105\INCLUDE\SETJMP.H
D:\VS 2019 COMMUNITY\VC\TOOLS\MSVC\14.23.28105\INCLUDE\IMMINTRIN.H
D:\VS 2019 COMMUNITY\VC\TOOLS\MSVC\14.23.28105\INCLUDE\WMMINTRIN.H
D:\VS 2019 COMMUNITY\VC\TOOLS\MSVC\14.23.28105\INCLUDE\NMMINTRIN.H
D:\VS 2019 COMMUNITY\VC\TOOLS\MSVC\14.23.28105\INCLUDE\SMMINTRIN.H
D:\VS 2019 COMMUNITY\VC\TOOLS\MSVC\14.23.28105\INCLUDE\TMMINTRIN.H
D:\VS 2019 COMMUNITY\VC\TOOLS\MSVC\14.23.28105\INCLUDE\PMMINTRIN.H
D:\VS 2019 COMMUNITY\VC\TOOLS\MSVC\14.23.28105\INCLUDE\EMMINTRIN.H
D:\VS 2019 COMMUNITY\VC\TOOLS\MSVC\14.23.28105\INCLUDE\XMMINTRIN.H
D:\VS 2019 COMMUNITY\VC\TOOLS\MSVC\14.23.28105\INCLUDE\MMINTRIN.H
D:\VS 2019 COMMUNITY\VC\TOOLS\MSVC\14.23.28105\INCLUDE\ZMMINTRIN.H
D:\VS 2019 COMMUNITY\VC\TOOLS\MSVC\14.23.28105\INCLUDE\AMMINTRIN.H
D:\VS 2019 COMMUNITY\VC\TOOLS\MSVC\14.23.28105\INCLUDE\MM3DNOW.H
E:\MATERI KULIAH\OPENGL 3.0\OPENGL PROJECT\OPENGL PROJECT\OPENGL PROJECT\GLM\EXT\MATRIX_RELATIONAL.HPP
E:\MATERI KULIAH\OPENGL 3.0\OPENGL PROJECT\OPENGL PROJECT\OPENGL PROJECT\GLM\EXT\MATRIX_RELATIONAL.INL
E:\MATERI KULIAH\OPENGL 3.0\OPENGL PROJECT\OPENGL PROJECT\OPENGL PROJECT\GLM\EXT\VECTOR_RELATIONAL.HPP
E:\MATERI KULIAH\OPENGL 3.0\OPENGL PROJECT\OPENGL PROJECT\OPENGL PROJECT\GLM\EXT\VECTOR_RELATIONAL.INL
E:\MATERI KULIAH\OPENGL 3.0\OPENGL PROJECT\OPENGL PROJECT\OPENGL PROJECT\GLM\DETAIL\TYPE_FLOAT.HPP
E:\MATERI KULIAH\OPENGL 3.0\OPENGL PROJECT\OPENGL PROJECT\OPENGL PROJECT\GLM\EXT\QUATERNION_DOUBLE.HPP
E:\MATERI KULIAH\OPENGL 3.0\OPENGL PROJECT\OPENGL PROJECT\OPENGL PROJECT\GLM\DETAIL\TYPE_QUAT.HPP
E:\MATERI KULIAH\OPENGL 3.0\OPENGL PROJECT\OPENGL PROJECT\OPENGL PROJECT\GLM\EXT\QUATERNION_RELATIONAL.HPP
E:\MATERI KULIAH\OPENGL 3.0\OPENGL PROJECT\OPENGL PROJECT\OPENGL PROJECT\GLM\EXT\QUATERNION_RELATIONAL.INL
E:\MATERI KULIAH\OPENGL 3.0\OPENGL PROJECT\OPENGL PROJECT\OPENGL PROJECT\GLM\GTC\CONSTANTS.HPP
E:\MATERI KULIAH\OPENGL 3.0\OPENGL PROJECT\OPENGL PROJECT\OPENGL PROJECT\GLM\EXT\SCALAR_CONSTANTS.HPP
E:\MATERI KULIAH\OPENGL 3.0\OPENGL PROJECT\OPENGL PROJECT\OPENGL PROJECT\GLM\EXT\SCALAR_CONSTANTS.INL
E:\MATERI KULIAH\OPENGL 3.0\OPENGL PROJECT\OPENGL PROJECT\OPENGL PROJECT\GLM\GTC\CONSTANTS.INL
E:\MATERI KULIAH\OPENGL 3.0\OPENGL PROJECT\OPENGL PROJECT\OPENGL PROJECT\GLM\GTC\MATRIX_TRANSFORM.HPP
E:\MATERI KULIAH\OPENGL 3.0\OPENGL PROJECT\OPENGL PROJECT\OPENGL PROJECT\GLM\EXT\MATRIX_PROJECTION.HPP
E:\MATERI KULIAH\OPENGL 3.0\OPENGL PROJECT\OPENGL PROJECT\OPENGL PROJECT\GLM\EXT\MATRIX_PROJECTION.INL
E:\MATERI KULIAH\OPENGL 3.0\OPENGL PROJECT\OPENGL PROJECT\OPENGL PROJECT\GLM\EXT\MATRIX_CLIP_SPACE.HPP
E:\MATERI KULIAH\OPENGL 3.0\OPENGL PROJECT\OPENGL PROJECT\OPENGL PROJECT\GLM\EXT\MATRIX_CLIP_SPACE.INL
E:\MATERI KULIAH\OPENGL 3.0\OPENGL PROJECT\OPENGL PROJECT\OPENGL PROJECT\GLM\EXT\MATRIX_TRANSFORM.HPP
E:\MATERI KULIAH\OPENGL 3.0\OPENGL PROJECT\OPENGL PROJECT\OPENGL PROJECT\GLM\EXT\MATRIX_TRANSFORM.INL
E:\MATERI KULIAH\OPENGL 3.0\OPENGL PROJECT\OPENGL PROJECT\OPENGL PROJECT\GLM\GTC\MATRIX_TRANSFORM.INL
E:\MATERI KULIAH\OPENGL 3.0\OPENGL PROJECT\OPENGL PROJECT\OPENGL PROJECT\GLM\DETAIL\TYPE_QUAT.INL
E:\MATERI KULIAH\OPENGL 3.0\OPENGL PROJECT\OPENGL PROJECT\OPENGL PROJECT\GLM\EXT\QUATERNION_GEOMETRIC.HPP
E:\MATERI KULIAH\OPENGL 3.0\OPENGL PROJECT\OPENGL PROJECT\OPENGL PROJECT\GLM\EXT\QUATERNION_GEOMETRIC.INL
E:\MATERI KULIAH\OPENGL 3.0\OPENGL PROJECT\OPENGL PROJECT\OPENGL PROJECT\GLM\EXT\QUATERNION_DOUBLE_PRECISION.HPP
E:\MATERI KULIAH\OPENGL 3.0\OPENGL PROJECT\OPENGL PROJECT\OPENGL PROJECT\GLM\EXT\QUATERNION_FLOAT.HPP
E:\MATERI KULIAH\OPENGL 3.0\OPENGL PROJECT\OPENGL PROJECT\OPENGL PROJECT\GLM\EXT\QUATERNION_FLOAT_PRECISION.HPP
E:\MATERI KULIAH\OPENGL 3.0\OPENGL PROJECT\OPENGL PROJECT\OPENGL PROJECT\GLM\EXT\SCALAR_INT_SIZED.HPP
E:\MATERI KULIAH\OPENGL 3.0\OPENGL PROJECT\OPENGL PROJECT\OPENGL PROJECT\GLM\EXT\SCALAR_RELATIONAL.HPP
E:\MATERI KULIAH\OPENGL 3.0\OPENGL PROJECT\OPENGL PROJECT\OPENGL PROJECT\GLM\EXT\SCALAR_RELATIONAL.INL
E:\MATERI KULIAH\OPENGL 3.0\OPENGL PROJECT\OPENGL PROJECT\OPENGL PROJECT\GLM\EXT\SCALAR_UINT_SIZED.HPP
E:\MATERI KULIAH\OPENGL 3.0\OPENGL PROJECT\OPENGL PROJECT\OPENGL PROJECT\GLM\EXT\VECTOR_BOOL1.HPP
E:\MATERI KULIAH\OPENGL 3.0\OPENGL PROJECT\OPENGL PROJECT\OPENGL PROJECT\GLM\EXT\VECTOR_BOOL1_PRECISION.HPP
E:\MATERI KULIAH\OPENGL 3.0\OPENGL PROJECT\OPENGL PROJECT\OPENGL PROJECT\GLM\EXT\VECTOR_DOUBLE1.HPP
E:\MATERI KULIAH\OPENGL 3.0\OPENGL PROJECT\OPENGL PROJECT\OPENGL PROJECT\GLM\EXT\VECTOR_DOUBLE1_PRECISION.HPP
E:\MATERI KULIAH\OPENGL 3.0\OPENGL PROJECT\OPENGL PROJECT\OPENGL PROJECT\GLM\EXT\VECTOR_FLOAT1.HPP
E:\MATERI KULIAH\OPENGL 3.0\OPENGL PROJECT\OPENGL PROJECT\OPENGL PROJECT\GLM\EXT\VECTOR_FLOAT1_PRECISION.HPP
E:\MATERI KULIAH\OPENGL 3.0\OPENGL PROJECT\OPENGL PROJECT\OPENGL PROJECT\GLM\EXT\VECTOR_INT1.HPP
E:\MATERI KULIAH\OPENGL 3.0\OPENGL PROJECT\OPENGL PROJECT\OPENGL PROJECT\GLM\EXT\VECTOR_INT1_PRECISION.HPP
E:\MATERI KULIAH\OPENGL 3.0\OPENGL PROJECT\OPENGL PROJECT\OPENGL PROJECT\GLM\EXT\VECTOR_UINT1.HPP
E:\MATERI KULIAH\OPENGL 3.0\OPENGL PROJECT\OPENGL PROJECT\OPENGL PROJECT\GLM\EXT\VECTOR_UINT1_PRECISION.HPP
E:\MATERI KULIAH\OPENGL 3.0\OPENGL PROJECT\OPENGL PROJECT\OPENGL PROJECT\GLM\GTC\BITFIELD.HPP
E:\MATERI KULIAH\OPENGL 3.0\OPENGL PROJECT\OPENGL PROJECT\OPENGL PROJECT\GLM\GTC\TYPE_PRECISION.HPP
E:\MATERI KULIAH\OPENGL 3.0\OPENGL PROJECT\OPENGL PROJECT\OPENGL PROJECT\GLM\GTC\QUATERNION.HPP
E:\MATERI KULIAH\OPENGL 3.0\OPENGL PROJECT\OPENGL PROJECT\OPENGL PROJECT\GLM\EXT\QUATERNION_COMMON.HPP
E:\MATERI KULIAH\OPENGL 3.0\OPENGL PROJECT\OPENGL PROJECT\OPENGL PROJECT\GLM\EXT\QUATERNION_COMMON.INL
E:\MATERI KULIAH\OPENGL 3.0\OPENGL PROJECT\OPENGL PROJECT\OPENGL PROJECT\GLM\EXT\QUATERNION_TRIGONOMETRIC.HPP
E:\MATERI KULIAH\OPENGL 3.0\OPENGL PROJECT\OPENGL PROJECT\OPENGL PROJECT\GLM\EXT\QUATERNION_TRIGONOMETRIC.INL
E:\MATERI KULIAH\OPENGL 3.0\OPENGL PROJECT\OPENGL PROJECT\OPENGL PROJECT\GLM\EXT\QUATERNION_TRANSFORM.HPP
E:\MATERI KULIAH\OPENGL 3.0\OPENGL PROJECT\OPENGL PROJECT\OPENGL PROJECT\GLM\EXT\QUATERNION_TRANSFORM.INL
E:\MATERI KULIAH\OPENGL 3.0\OPENGL PROJECT\OPENGL PROJECT\OPENGL PROJECT\GLM\GTC\QUATERNION.INL
E:\MATERI KULIAH\OPENGL 3.0\OPENGL PROJECT\OPENGL PROJECT\OPENGL PROJECT\GLM\GTC\EPSILON.HPP
E:\MATERI KULIAH\OPENGL 3.0\OPENGL PROJECT\OPENGL PROJECT\OPENGL PROJECT\GLM\GTC\EPSILON.INL
E:\MATERI KULIAH\OPENGL 3.0\OPENGL PROJECT\OPENGL PROJECT\OPENGL PROJECT\GLM\GTC\VEC1.HPP
E:\MATERI KULIAH\OPENGL 3.0\OPENGL PROJECT\OPENGL PROJECT\OPENGL PROJECT\GLM\GTC\TYPE_PRECISION.INL
E:\MATERI KULIAH\OPENGL 3.0\OPENGL PROJECT\OPENGL PROJECT\OPENGL PROJECT\GLM\GTC\BITFIELD.INL
E:\MATERI KULIAH\OPENGL 3.0\OPENGL PROJECT\OPENGL PROJECT\OPENGL PROJECT\GLM\SIMD\INTEGER.H
E:\MATERI KULIAH\OPENGL 3.0\OPENGL PROJECT\OPENGL PROJECT\OPENGL PROJECT\GLM\GTC\COLOR_SPACE.HPP
E:\MATERI KULIAH\OPENGL 3.0\OPENGL PROJECT\OPENGL PROJECT\OPENGL PROJECT\GLM\GTC\COLOR_SPACE.INL
E:\MATERI KULIAH\OPENGL 3.0\OPENGL PROJECT\OPENGL PROJECT\OPENGL PROJECT\GLM\GTC\INTEGER.HPP
E:\MATERI KULIAH\OPENGL 3.0\OPENGL PROJECT\OPENGL PROJECT\OPENGL PROJECT\GLM\GTC\INTEGER.INL
E:\MATERI KULIAH\OPENGL 3.0\OPENGL PROJECT\OPENGL PROJECT\OPENGL PROJECT\GLM\GTC\MATRIX_ACCESS.HPP
E:\MATERI KULIAH\OPENGL 3.0\OPENGL PROJECT\OPENGL PROJECT\OPENGL PROJECT\GLM\GTC\MATRIX_ACCESS.INL
E:\MATERI KULIAH\OPENGL 3.0\OPENGL PROJECT\OPENGL PROJECT\OPENGL PROJECT\GLM\GTC\MATRIX_INTEGER.HPP
E:\MATERI KULIAH\OPENGL 3.0\OPENGL PROJECT\OPENGL PROJECT\OPENGL PROJECT\GLM\GTC\MATRIX_INVERSE.HPP
E:\MATERI KULIAH\OPENGL 3.0\OPENGL PROJECT\OPENGL PROJECT\OPENGL PROJECT\GLM\GTC\MATRIX_INVERSE.INL
E:\MATERI KULIAH\OPENGL 3.0\OPENGL PROJECT\OPENGL PROJECT\OPENGL PROJECT\GLM\GTC\NOISE.HPP
E:\MATERI KULIAH\OPENGL 3.0\OPENGL PROJECT\OPENGL PROJECT\OPENGL PROJECT\GLM\DETAIL\_NOISE.HPP
E:\MATERI KULIAH\OPENGL 3.0\OPENGL PROJECT\OPENGL PROJECT\OPENGL PROJECT\GLM\GTC\NOISE.INL
E:\MATERI KULIAH\OPENGL 3.0\OPENGL PROJECT\OPENGL PROJECT\OPENGL PROJECT\GLM\GTC\PACKING.HPP
E:\MATERI KULIAH\OPENGL 3.0\OPENGL PROJECT\OPENGL PROJECT\OPENGL PROJECT\GLM\GTC\PACKING.INL
E:\MATERI KULIAH\OPENGL 3.0\OPENGL PROJECT\OPENGL PROJECT\OPENGL PROJECT\GLM\GTC\RANDOM.HPP
E:\MATERI KULIAH\OPENGL 3.0\OPENGL PROJECT\OPENGL PROJECT\OPENGL PROJECT\GLM\GTC\RANDOM.INL
D:\VS 2019 COMMUNITY\VC\TOOLS\MSVC\14.23.28105\INCLUDE\CTIME
C:\PROGRAM FILES (X86)\WINDOWS KITS\10\INCLUDE\10.0.18362.0\UCRT\TIME.H
E:\MATERI KULIAH\OPENGL 3.0\OPENGL PROJECT\OPENGL PROJECT\OPENGL PROJECT\GLM\GTC\RECIPROCAL.HPP
E:\MATERI KULIAH\OPENGL 3.0\OPENGL PROJECT\OPENGL PROJECT\OPENGL PROJECT\GLM\GTC\RECIPROCAL.INL
E:\MATERI KULIAH\OPENGL 3.0\OPENGL PROJECT\OPENGL PROJECT\OPENGL PROJECT\GLM\GTC\ROUND.HPP
E:\MATERI KULIAH\OPENGL 3.0\OPENGL PROJECT\OPENGL PROJECT\OPENGL PROJECT\GLM\GTC\ROUND.INL
E:\MATERI KULIAH\OPENGL 3.0\OPENGL PROJECT\OPENGL PROJECT\OPENGL PROJECT\GLM\EXT\VECTOR_INTEGER.HPP
E:\MATERI KULIAH\OPENGL 3.0\OPENGL PROJECT\OPENGL PROJECT\OPENGL PROJECT\GLM\EXT\VECTOR_INTEGER.INL
E:\MATERI KULIAH\OPENGL 3.0\OPENGL PROJECT\OPENGL PROJECT\OPENGL PROJECT\GLM\EXT\SCALAR_INTEGER.HPP
E:\MATERI KULIAH\OPENGL 3.0\OPENGL PROJECT\OPENGL PROJECT\OPENGL PROJECT\GLM\EXT\SCALAR_INTEGER.INL
E:\MATERI KULIAH\OPENGL 3.0\OPENGL PROJECT\OPENGL PROJECT\OPENGL PROJECT\GLM\GTC\TYPE_PTR.HPP
E:\MATERI KULIAH\OPENGL 3.0\OPENGL PROJECT\OPENGL PROJECT\OPENGL PROJECT\GLM\GTC\TYPE_PTR.INL
E:\MATERI KULIAH\OPENGL 3.0\OPENGL PROJECT\OPENGL PROJECT\OPENGL PROJECT\GLM\GTC\ULP.HPP
E:\MATERI KULIAH\OPENGL 3.0\OPENGL PROJECT\OPENGL PROJECT\OPENGL PROJECT\GLM\GTC\ULP.INL
E:\MATERI KULIAH\OPENGL 3.0\OPENGL PROJECT\OPENGL PROJECT\OPENGL PROJECT\GLM\EXT\SCALAR_ULP.HPP
E:\MATERI KULIAH\OPENGL 3.0\OPENGL PROJECT\OPENGL PROJECT\OPENGL PROJECT\GLM\EXT\SCALAR_ULP.INL
