^E:\MATERI KULIAH\OPENGL 3.0\OPENGL PROJECT\OPENGL PROJECT\OPENGL PROJECT\OPENGL PROJECT.CPP
E:\MATERI KULIAH\OPENGL 3.0\OPENGL PROJECT\OPENGL PROJECT\OPENGL PROJECT\DEBUG\VC142.PDB
E:\MATERI KULIAH\OPENGL 3.0\OPENGL PROJECT\OPENGL PROJECT\OPENGL PROJECT\DEBUG\VC142.IDB
E:\MATERI KULIAH\OPENGL 3.0\OPENGL PROJECT\OPENGL PROJECT\OPENGL PROJECT\DEBUG\OPENGL PROJECT.OBJ
