^E:\MATERI KULIAH\OPENGL 3.0\OPENGL PROJECT\OPENGL PROJECT\OPENGL PROJECT\DEBUG\OPENGL PROJECT.OBJ
C:\PROGRAM FILES (X86)\WINDOWS KITS\10\LIB\10.0.18362.0\UM\X86\OPENGL32.LIB
C:\PROGRAM FILES (X86)\WINDOWS KITS\10\LIB\10.0.18362.0\UM\X86\GLU32.LIB
E:\MATERI KULIAH\OPENGL 3.0\OPENGL PROJECT\OPENGL PROJECT\OPENGL PROJECT\DEPENDENCIES\GLEW-2.1.0-WIN32\GLEW-2.1.0\LIB\RELEASE\WIN32\GLEW32.LIB
E:\MATERI KULIAH\OPENGL 3.0\OPENGL PROJECT\OPENGL PROJECT\OPENGL PROJECT\DEPENDENCIES\GLFW-3.3.BIN.WIN32\GLFW-3.3.BIN.WIN32\LIB-VC2019\GLFW3.LIB
E:\MATERI KULIAH\OPENGL 3.0\OPENGL PROJECT\OPENGL PROJECT\OPENGL PROJECT\DEPENDENCIES\GLFW-3.3.BIN.WIN32\GLFW-3.3.BIN.WIN32\LIB-VC2019\GLFW3DLL.LIB
C:\PROGRAM FILES (X86)\WINDOWS KITS\10\LIB\10.0.18362.0\UM\X86\KERNEL32.LIB
C:\PROGRAM FILES (X86)\WINDOWS KITS\10\LIB\10.0.18362.0\UM\X86\USER32.LIB
C:\PROGRAM FILES (X86)\WINDOWS KITS\10\LIB\10.0.18362.0\UM\X86\GDI32.LIB
C:\PROGRAM FILES (X86)\WINDOWS KITS\10\LIB\10.0.18362.0\UM\X86\WINSPOOL.LIB
C:\PROGRAM FILES (X86)\WINDOWS KITS\10\LIB\10.0.18362.0\UM\X86\COMDLG32.LIB
C:\PROGRAM FILES (X86)\WINDOWS KITS\10\LIB\10.0.18362.0\UM\X86\ADVAPI32.LIB
C:\PROGRAM FILES (X86)\WINDOWS KITS\10\LIB\10.0.18362.0\UM\X86\SHELL32.LIB
C:\PROGRAM FILES (X86)\WINDOWS KITS\10\LIB\10.0.18362.0\UM\X86\OLE32.LIB
C:\PROGRAM FILES (X86)\WINDOWS KITS\10\LIB\10.0.18362.0\UM\X86\OLEAUT32.LIB
C:\PROGRAM FILES (X86)\WINDOWS KITS\10\LIB\10.0.18362.0\UM\X86\UUID.LIB
C:\PROGRAM FILES (X86)\WINDOWS KITS\10\LIB\10.0.18362.0\UM\X86\ODBC32.LIB
C:\PROGRAM FILES (X86)\WINDOWS KITS\10\LIB\10.0.18362.0\UM\X86\ODBCCP32.LIB
E:\MATERI KULIAH\OPENGL 3.0\OPENGL PROJECT\OPENGL PROJECT\OPENGL PROJECT\DEBUG\OPENGL PROJECT.OBJ
C:\WINDOWS\SYSTEM32\TZRES.DLL
C:\WINDOWS\GLOBALIZATION\SORTING\SORTDEFAULT.NLS
D:\VS 2019 COMMUNITY\VC\TOOLS\MSVC\14.23.28105\LIB\X86\MSVCPRTD.LIB
D:\VS 2019 COMMUNITY\VC\TOOLS\MSVC\14.23.28105\LIB\X86\MSVCRTD.LIB
D:\VS 2019 COMMUNITY\VC\TOOLS\MSVC\14.23.28105\LIB\X86\OLDNAMES.LIB
D:\VS 2019 COMMUNITY\VC\TOOLS\MSVC\14.23.28105\LIB\X86\MSVCRT.LIB
D:\VS 2019 COMMUNITY\VC\TOOLS\MSVC\14.23.28105\LIB\X86\VCRUNTIMED.LIB
C:\PROGRAM FILES (X86)\WINDOWS KITS\10\LIB\10.0.18362.0\UCRT\X86\UCRTD.LIB
D:\VS 2019 COMMUNITY\VC\TOOLS\MSVC\14.23.28105\BIN\HOSTX86\X86\1033\LINKUI.DLL
D:\VS 2019 COMMUNITY\VC\TOOLS\MSVC\14.23.28105\BIN\HOSTX86\X86\CVTRES.EXE
D:\VS 2019 COMMUNITY\VC\TOOLS\MSVC\14.23.28105\BIN\HOSTX86\X86\MSPDBSRV.EXE
